<?xml version="1.0" encoding="UTF-8" standalone="no"?>
<!DOCTYPE svg PUBLIC "-//W3C//DTD SVG 1.1//EN" "http://www.w3.org/Graphics/SVG/1.1/DTD/svg11.dtd">
<!-- Created with Inkscape (http://www.inkscape.org/) by Marsupilami -->
<svg xmlns:svg="http://www.w3.org/2000/svg" xmlns="http://www.w3.org/2000/svg" version="1.1" width="1024" height="424" viewBox="-2.33857497 -2.33857497 199.55840994 82.62964894" id="svg11878">
  <defs id="defs11880"/>
  <path d="m 0,0 194.88125,0 0,77.9525 L 0,77.9525 0,0 z" id="path11744" style="fill:#ffffff;fill-opacity:0;fill-rule:nonzero;stroke:none"/>
  <path d="m 76.6875,17.24375 0,0.9325 2.9675,0 0,9.16375 1.11375,0 0,-9.16375 2.98375,0 0,-0.9325 -7.065,0 z m 9.32875,0 0,10.09625 5.49,0 0,-0.9325 -4.36,0 0,-3.83 3.94875,0 0,-0.93375 -3.94875,0 0,-3.4675 4.36,0 0,-0.9325 -5.49,0 z m 12.93,0.635 c 0.96875,0 1.82125,0.195 2.61625,0.7225 l 0.42875,-0.81 c -0.94875,-0.495 -1.88625,-0.76875 -3.045,-0.76875 -2.985,0 -5.335,2.15125 -5.335,5.2325 0,3.285 2.3475,5.23125 5.335,5.23125 1.0225,0 2.10625,-0.39375 3,-0.8975 l -0.40125,-0.72 c -0.78875,0.43875 -1.70375,0.7625 -2.59875,0.7625 -2.4525,0 -4.18375,-1.9525 -4.18375,-4.37625 0,-2.425 1.73125,-4.37625 4.18375,-4.37625 m 5.6025,-0.635 0,10.09625 1.13,0 0,-4.8375 5.50375,0 0,4.8375 1.1225,0 0,-10.09625 -1.1225,0 0,4.3425 -5.50375,0 0,-4.3425 -1.13,0 z m 12.53,-0.2325 -1.1725,0.3 0,10.02875 1.07875,0 -0.005,-8.6675 5.93625,8.89 1.19125,-0.32875 0,-9.99 -1.05,0 -0.02,8.66125 -5.95875,-8.89375 z M 128.1975,27.34 l 1.12125,0 0,-10.0975 -1.12125,0 0,10.0975 z m 6.87875,-0.61625 c -0.785,0 -1.59,-0.34125 -2.14875,-0.71125 l -0.45,0.7325 c 0.815,0.49 1.62125,0.745 2.6725,0.745 2.19625,0 3.21625,-1.37625 3.21625,-2.845 0,-1.53875 -1.0925,-2.1875 -2.24625,-2.7425 l -0.84875,-0.40625 c -0.73625,-0.37125 -1.51875,-0.85375 -1.51875,-1.805 0,-1.31 1.08,-1.90125 2.005,-1.90125 0.94375,0 1.5575,0.3325 2.14,0.71 l 0.39,-0.74125 c -0.78,-0.4525 -1.63875,-0.735 -2.58875,-0.735 -1.78125,0 -3.00875,1.07875 -3.00875,2.5925 0,2.1125 1.54625,2.495 3.0325,3.2125 0.8175,0.39375 1.49125,0.88875 1.49125,1.92 0,1.21 -0.8875,1.975 -2.1375,1.975 m 11.08875,-8.845 c 0.96875,0 1.8225,0.195 2.61625,0.7225 l 0.42875,-0.81 c -0.94875,-0.495 -1.88625,-0.76875 -3.045,-0.76875 -2.985,0 -5.335,2.15125 -5.335,5.2325 0,3.285 2.3475,5.23125 5.335,5.23125 1.0225,0 2.10625,-0.39375 3,-0.8975 l -0.4025,-0.72 c -0.7875,0.43875 -1.7025,0.7625 -2.5975,0.7625 -2.4525,0 -4.18375,-1.9525 -4.18375,-4.37625 0,-2.425 1.73125,-4.37625 4.18375,-4.37625 m 5.9375,-0.635 0,10.09625 1.13,0 0,-4.8375 5.50375,0 0,4.8375 1.12125,0 0,-10.09625 -1.12125,0 0,4.3425 -5.50375,0 0,-4.3425 -1.13,0 z m 11.35375,0 0,10.09625 5.49875,0 0,-0.9325 -4.36,0 0,-3.83 3.94875,0 0,-0.9325 -3.94875,0 0,-3.46875 4.36,0 0,-0.9325 -5.49875,0 z m -77.76,23.32625 0,-6.6225 -1.13,0 0,6.45875 c 0,2.265 -1.0925,2.98 -2.835,2.98 -1.91125,0 -2.7175,-1.0425 -2.7175,-2.98 l 0,-6.45875 -1.1625,0 0.03,6.72 c 0,2.3025 1.355,3.55375 3.85,3.55375 1.89625,0 3.965,-0.6075 3.965,-3.65125 m 4.36875,-6.84625 -1.1725,0.29875 0,10.03 1.07875,0 -0.005,-8.6675 5.93625,8.89 1.19125,-0.32875 0,-9.99 -1.05,0 -0.02,8.66125 -5.95875,-8.89375 z m 10.57125,10.32875 1.13,0 0,-10.105 -1.13,0 0,10.105 z m 4.41375,-10.26 -1.0975,0.34625 3.85625,9.91375 1.115,0 3.88,-9.89875 -1.0725,-0.35875 -3.335,9.0625 -3.34625,-9.065 z m 9.93375,0.155 0,10.105 5.49,0 0,-0.9325 -4.36,0 0,-3.83 3.94,0 0,-0.93375 -3.94,0 0,-3.47625 4.36,0 0,-0.9325 -5.49,0 z m 10.61875,4.92875 -1.34625,0 0,-4.05375 1.6275,0 c 1.74,0 2.26,0.85125 2.26,2.015 0,1.6075 -1.25625,2.03875 -2.54125,2.03875 m 0.56625,-4.92 -3.05125,-0.0075 0,10.1125 1.13875,0 0,-4.35125 0.925,0 c 0.74625,0 1.13125,0.27375 1.57125,0.81125 l 0.43375,0.555 2.37125,3.23125 0.98625,-0.59 -1.99875,-2.645 c -0.3925,-0.48875 -0.93,-1.4325 -1.575,-1.58625 l 0.0113,-0.20875 c 1.3925,-0.1875 2.205,-0.995 2.205,-2.62375 0,-1.645 -1.115,-2.6975 -3.0175,-2.6975 m 8.41,9.54875 c -0.785,0 -1.59,-0.34125 -2.14875,-0.71125 l -0.44875,0.7325 c 0.81375,0.49 1.62125,0.745 2.67125,0.745 2.19625,0 3.21625,-1.37625 3.21625,-2.845 0,-1.53875 -1.09125,-2.18875 -2.24625,-2.7425 L 134.775,38.2775 c -0.73625,-0.37125 -1.51875,-0.85375 -1.51875,-1.805 0,-1.31 1.07875,-1.90125 2.005,-1.90125 0.9425,0 1.5575,0.3325 2.14,0.71 L 137.79,34.54 c -0.78,-0.45125 -1.6375,-0.73375 -2.58875,-0.73375 -1.78,0 -3.00875,1.0775 -3.00875,2.5925 0,2.11125 1.54625,2.49375 3.0325,3.21125 0.81875,0.395 1.4925,0.8875 1.4925,1.92 0,1.21125 -0.88875,1.975 -2.13875,1.975 m 6.32125,0.5475 1.13,0 0,-10.105 -1.13,0 0,10.105 z m 3.33875,-10.105 0,0.9325 2.9675,0 0,9.1725 1.115,0 0,-9.1725 2.9825,0 0,-0.9325 -7.065,0 z m 12.1825,1.01875 1.8575,4.9975 -3.775,0 1.9175,-4.9975 z m 4.59,8.965 -3.99625,-9.98375 -1.18375,0 -4.11625,9.98375 1.11625,0.39 1.35875,-3.54 4.39375,0 1.31875,3.54625 1.10875,-0.39625 z m -1.675,-10.62375 -1.015,0 0,1.32 1.015,0 0,-1.32 z m -4.78375,0 -1.00625,0 0,1.32 1.00625,0 0,-1.32 z m 7.495,0.64 0,0.9325 2.96625,0 0,9.1725 1.115,0 0,-9.1725 2.98375,0 0,-0.9325 -7.065,0 z m -81.55625,25.935 -1.4775,0 0,-8.3475 1.7075,0.0063 c 2.80125,0 4.63875,1.43375 4.63875,4.10125 0,2.65125 -1.87125,4.24 -4.86875,4.24 m 0.46875,-9.2313 -3.085,0.0087 0,10.09625 2.74125,0 c 3.49875,0 5.81375,-1.77375 5.81375,-5.1875 0,-2.46875 -1.4125,-4.9175 -5.47,-4.9175 m 11.7375,1.0175 1.85875,4.99875 -3.77625,0 1.9175,-4.99875 z m 4.59,8.96625 -3.99625,-9.9825 -1.1825,0 -4.11625,9.9825 1.115,0.39 1.35875,-3.54 4.39375,0 1.31875,3.5475 1.10875,-0.3975 z m 5.17125,-5.055 -1.34625,0 0,-4.0525 1.6275,0 c 1.74125,0 2.26,0.85 2.26,2.015 0,1.6075 -1.255,2.0375 -2.54125,2.0375 m 0.5675,-4.91875 -3.0525,-0.0087 0,10.1125 1.13875,0 0,-4.35 0.92625,0 c 0.74625,0 1.13125,0.27375 1.57,0.81 l 0.43375,0.55625 2.3725,3.23 0.985,-0.59 -1.9975,-2.645 c -0.3925,-0.4875 -0.93,-1.4325 -1.575,-1.585 l 0.01,-0.20875 c 1.3925,-0.1875 2.205,-0.995 2.205,-2.625 0,-1.64375 -1.11375,-2.69625 -3.01625,-2.69625 m 10.60125,-0.0013 -1.23375,0 -2.825,9.9875 1.0875,0.29125 2.37875,-8.76875 2.5625,8.58625 1.2675,0 2.605,-8.605 2.34625,8.7875 1.07125,-0.29 -2.81,-9.98875 -1.24,0 -2.6075,8.8 -2.6025,-8.8 z m 14.07375,9.52 c -0.785,0 -1.59,-0.34125 -2.14875,-0.71125 l -0.44875,0.73375 c 0.81375,0.48875 1.62125,0.74375 2.6725,0.74375 2.195,0 3.21625,-1.375 3.21625,-2.845 0,-1.53875 -1.0925,-2.1875 -2.24625,-2.74125 l -0.84875,-0.4075 c -0.73625,-0.37 -1.51875,-0.85375 -1.51875,-1.80375 0,-1.31 1.07875,-1.90125 2.005,-1.90125 0.94375,0 1.5575,0.33125 2.14,0.71 l 0.38875,-0.74125 c -0.78,-0.4525 -1.6375,-0.735 -2.58875,-0.735 -1.78,0 -3.00875,1.07875 -3.00875,2.5925 0,2.1125 1.54625,2.49375 3.03375,3.21125 0.8175,0.395 1.49125,0.88875 1.49125,1.92 0,1.21125 -0.88875,1.975 -2.13875,1.975 m 5.17,-9.52 0,0.9325 2.9675,0 0,9.16375 1.115,0 0,-9.16375 2.9825,0 0,-0.9325 -7.065,0 z m 12.3175,1.0175 1.8575,4.99875 -3.77625,0 1.91875,-4.99875 z m 4.59,8.96625 -3.99625,-9.98375 -1.18375,0 -4.11625,9.98375 1.11625,0.39 1.35875,-3.54 4.39375,0 1.31875,3.5475 1.10875,-0.3975 z m 4.91875,-0.76125 -1.4775,0 0,-8.3475 1.7075,0.0063 c 2.80125,0 4.64,1.43375 4.64,4.10125 0,2.65125 -1.8725,4.24 -4.87,4.24 m 0.46875,-9.23125 -3.085,0.0087 0,10.09625 2.7425,0 c 3.4975,0 5.8125,-1.77375 5.8125,-5.1875 0,-2.46875 -1.4125,-4.9175 -5.47,-4.9175 m 6.84625,0.0087 0,0.9325 2.96625,0 0,9.16375 1.11375,0 0,-9.16375 2.98375,0 0,-0.9325 -7.06375,0 z" id="path11746" style="fill:#231f20;fill-opacity:1;fill-rule:nonzero;stroke:none"/>
  <path d="m 36.3425,23.7825 c 0,0.29375 -0.2375,0.53125 -0.53,0.53125 -0.2925,0 -0.53,-0.2375 -0.53,-0.53125 0,-0.29375 0.2375,-0.53 0.53,-0.53 0.2925,0 0.53,0.23625 0.53,0.53" id="path11748" style="fill:#231f20;fill-opacity:1;fill-rule:nonzero;stroke:none"/>
  <path d="m 45.04625,25.08625 0,0 c -0.2275,0.06125 -0.46,0.16375 -0.695,0.1575 -0.07125,-0.0025 -0.6525,-0.0925 -0.58,0.08875 0.2,0.49875 0.73625,0.57125 1.21,0.6925 0,0 0.03,-0.6275 0.065,-0.93875" id="path11750" style="fill:#231f20;fill-opacity:1;fill-rule:nonzero;stroke:none"/>
  <path d="m 48.19625,26.95375 0.0025,0.0012 c -0.285,-0.1325 -0.625,-0.23625 -0.85125,-0.4575 -0.04625,-0.045 -0.28125,-0.42875 -0.3325,-0.1875 -0.115,0.55375 0.05375,1.28375 0.47875,1.665 0,0 0.4775,-0.6975 0.7025,-1.02125" id="path11752" style="fill:#231f20;fill-opacity:1;fill-rule:nonzero;stroke:none"/>
  <path d="m 51.375,28.5125 c 0,0.24 -0.195,0.43375 -0.43375,0.43375 -0.24,0 -0.43375,-0.19375 -0.43375,-0.43375 0,-0.23875 0.19375,-0.43375 0.43375,-0.43375 0.23875,0 0.43375,0.195 0.43375,0.43375" id="path11754" style="fill:#231f20;fill-opacity:1;fill-rule:nonzero;stroke:none"/>
  <path d="m 54.16,25.13375 c 0,0.3025 -0.245,0.5475 -0.5475,0.5475 -0.3025,0 -0.54875,-0.245 -0.54875,-0.5475 0,-0.3025 0.24625,-0.5475 0.54875,-0.5475 0.3025,0 0.5475,0.245 0.5475,0.5475" id="path11756" style="fill:#231f20;fill-opacity:1;fill-rule:nonzero;stroke:none"/>
  <path d="m 52.745,26.76125 c 0,0.27 -0.22,0.49 -0.49125,0.49 -0.27125,0 -0.49125,-0.22 -0.49125,-0.49 0,-0.27125 0.22,-0.49125 0.49125,-0.49125 0.27125,0 0.49125,0.22 0.49125,0.49125" id="path11758" style="fill:#231f20;fill-opacity:1;fill-rule:nonzero;stroke:none"/>
  <path d="m 57.7525,22.4225 c -0.4725,0.16125 -0.98625,-0.09125 -1.1475,-0.56375 -0.16125,-0.4725 0.09125,-0.98625 0.56375,-1.1475 l 0.2525,-0.05125 0.5775,1.6475 -0.24625,0.115 z" id="path11760" style="fill:#231f20;fill-opacity:1;fill-rule:nonzero;stroke:none"/>
  <path d="M 58.47625,38.5375 C 58.5425,39.32 58.19,40.01875 57.6725,40.0625 57.155,40.1075 56.66125,39.495 56.595,38.7125 56.52875,37.93 56.9,37.245 57.4175,37.20125 c 0.5175,-0.045 0.99125,0.55375 1.05875,1.33625" id="path11762" style="fill:#231f20;fill-opacity:1;fill-rule:nonzero;stroke:none"/>
  <path d="M 51.30625,19.5275 55.715,12.22 C 27.9175,2.56125 4.93125,36.1275 25.11,58.24 l 4.08375,-4.89125 C 14.6875,33.8125 34.035,12.81125 51.30625,19.5275 z M 52.4625,21.49 C 36.31,15.885 25.6025,28.4175 26.035,39.82875 c 0.435,11.40875 8,12.15375 7.15375,18.41875 M 32.3525,54.08375 C 20.86875,61.5525 42.09625,72.88 59.38125,64.42875 m -2.955,-46.715 C 46.02375,26 41.435,41.87375 29.85875,50.65875 m 26.5675,-32.945 2.54625,7.475 M 57.0075,19.4225 C 46.56125,28.315 41.68375,45.18125 30.76,51.82625 M 58.2825,23.1625 C 47.55375,31.24875 43.25375,45.635 31.77375,53.175 M 58.9725,25.18875 C 49.33125,31.4975 44.275,48.01125 32.64125,54.6325 m 19.70125,-41.695 -3.07,5.92625 M 50.82375,10.945 47.58,18.5 m 0.01875,-6.095 -1.84,5.885 m 0.02875,-7.775 -1.99625,7.75 m -0.735,-5.745 -0.89875,5.8825 m -1.41625,-7.37875 -0.52625,7.73 m -1.91875,-5.465 0.195,5.95375 M 35.785,12.45 l 1,7.44875 M 33.86125,15.16 35.18,20.685 m -3.8,-6.0175 2.3225,6.9025 m -3.8075,-4.00625 2.23375,5.14375 m -4.79375,-5.02125 3.54,6.0975 m -4.50375,-3.08 3.19875,4.3975 m -5.635,-3.84 4.50125,5.1975 M 23.54,24.45375 27.31125,28.07 m -6.16875,-2.67875 5.355,4.0825 m -5.1875,-0.995 4.385,2.6875 m -6.58,-1.33375 5.97125,2.98125 m -5.2625,0.1325 4.805,1.51375 m -6.815,0.3625 6.495,1.3375 M 19.13,37.6725 24.1175,38.22375 M 17.455,39.84 l 6.66375,0.13375 m -4.8625,2.3925 5.03625,-0.4725 m -6.21125,3.15875 6.53,-1.39375 M 20.36625,47.0175 25.14,45.61625 M 19.6775,49.95875 25.695,47.16 m -3.6175,4.10875 4.27375,-2.60625 m -4.3475,5.59 5.22625,-3.90625 m -2.855,5.33 3.81125,-3.77 m 23.12,-32.37875 c -1.62375,-0.305 -2.645,-0.1675 -3.3375,0.83375 m -18.88,29.22625 c -0.62,1.5 -0.8275,2.43625 0.105,3.76125 M 30.32875,27.04 c 2.86875,4.2925 8.885,0.88125 15.62625,3.2575 M 29.84875,27.66875 c 0.40375,8.20625 8.635,7.245 11.51125,9.76 M 44.935,31.88 C 40.95,30.04625 32.84125,32.89875 30.01,29.08875 m 13.95375,4.3125 c -2.9375,-1.17 -9.40125,0.2575 -12.58,-1.1375 m 11.48,2.8575 C 40.96,34.47375 36.13,35.13375 34.96625,34.80875 m 5.92,-10.94125 -0.30125,-3.30875 m 0.5925,6.50375 -0.185,-2.02375 m -1.66125,-2.58125 1.525,1.0825 M 41.02,25.33125 c -0.2,0.0925 -0.4225,0.14375 -0.6575,0.14375 -0.86375,0 -1.565,-0.70125 -1.565,-1.565 0,-0.555 0.28625,-1.04125 0.72,-1.31875 m 1.66,4.47125 c -2.81625,0.495 -5.79375,-2.79125 -2.96625,-5.79875 M 37.83875,25.825 C 35.935,26.4175 34.23625,24.80625 33.795,23.67625 M 33.33375,26.32 31.4,25.80625 M 33.33375,26.32 c 1.56875,1.8425 5.63125,1.71125 6.47125,0.7 m -0.34,0.28125 c 0.05,0.59 0.3325,1.39625 1.0825,2.06625 m -7.56,-3.14 c -0.34375,0.55125 -0.28875,2.16 -0.08625,2.7575 m 10.53,-5.12375 -1.38,5.6 M 47.2225,25.18 43.125,29.595 m 2.06125,-5.55875 c -0.14875,1.0925 -0.36,2.325 -0.05,3.3925 M 45.00125,21.79 c 2.14375,-0.425 2.3925,2.7 0.14375,2.54125 m -1.0375,-1.7725 c -2.455,-2.10875 2.345,-3.965 2.07,-0.57875 m -2.73375,-0.3625 c -1.9,0.0625 -1.36375,2.4675 -0.0825,2.5275 M 48.635,24.22 c -0.5275,-2.115 1.58125,-2.7825 2.595,-1.29625 m -2.62,0.185 c -1.635,-0.7525 -2.80875,0.9275 -1.58,2.28 m 8.40875,-4.53375 -0.3325,2.815 2.01125,0.41375 m 1.4275,1.3925 c 0,0 4.1225,12.4325 5.32875,15.59875 1.17375,3.08125 2.08125,4.5975 -0.8225,4.77125 C 60.7425,45.2825 59.665,46.515 59.665,46.515 c 0,0 -1.6,-1.08875 0,-2.57 m 2.11125,5.7275 c 1.32625,-1.0475 1.285,-1.275 0.7475,-1.98625 -0.5375,-0.7125 -0.2275,-1.1225 0.5275,-1.84 m -5.5975,4.6 c 1.4575,-0.3025 3.1525,-0.905 4.3225,-0.77375 M 48.865,36.4075 c 0.47625,2.22125 -0.515,5.43625 -4.565,6.62125 M 50.18375,34.52 c 2.005,5.64875 -2.3825,10.62625 -7.23875,10.35125 M 43.9725,52.26 c 0,0.66875 -0.5425,1.21 -1.20875,1.21 -0.66875,0 -1.21,-0.54125 -1.21,-1.21 0,-0.6675 0.54125,-1.20875 1.21,-1.20875 0.66625,0 1.20875,0.54125 1.20875,1.20875 z m 1.7975,0 c 0,1.6625 -1.34625,3.0075 -3.00625,3.0075 -1.66125,0 -3.00875,-1.345 -3.00875,-3.0075 0,-1.66125 1.3475,-3.00625 3.00875,-3.00625 1.66,0 3.00625,1.345 3.00625,3.00625 z M 35.04375,63.20125 c -3.39625,-1.04875 -6.57,-4.895 -1.99625,-7.48375 M 34.315,53.585 c 0.74125,1.05375 1.7275,4.795 -3.545,5.2675 m 5.115,-6.435 c 2.42875,3.89 -0.67125,7.96625 -4.6675,7.92875 m 6.02375,-9.085 c 2.40625,4.28625 1.305,9.2 -4.47,10.78 m 2.2725,1.16 c 7.1925,-3.56125 5.115,-11.065 3.52,-13.20125 m 3.4225,5.16625 c 0.1725,2.46 -1.115,7.94625 -7.06875,9.9875 M 37.26125,64.0425 C 40.03,64.54875 45.9975,66.49125 47.895,67.38 m -8.9325,-4.67875 c 3.05125,0.72 10.76625,3.1525 13.42,4.1 m -7.70125,-12.2225 c 9.435,5.92125 21.3575,2.31375 16.285,-2.34875 0.4275,-0.6275 0.69375,-0.9425 1.48,-0.97875 0.21125,-0.7375 -0.06875,-1.29375 -0.67,-1.57875 M 54.36,57.88125 c -1.08875,3.41625 -1.08875,6.56 -0.5875,8.60125 m -0.26125,-4.175 C 55.94,62.98 58.77,63.865 59.38125,64.42875 M 57.29,65.35 C 56.855,65.00375 55.11125,64.4925 53.47125,64.065 M 40.24,48.2025 c 0.085,0.57375 0.22125,1.20375 0.5425,1.79625 m 0.91125,-3.5225 c 0.03125,1.11125 0.29375,2.08 0.60375,2.815 M 41.955,48.2825 c 0.97875,-1.27625 3.23875,-0.76125 2.41,1.4325 m -0.93375,-3.8325 c 2.6725,0.08375 3.70375,3.36375 2.055,5.1025 M 43.98,44.85125 43.83625,45.92 m 6.78625,-9.55125 c 1.83875,-1.6375 2.21375,-3.47125 2.04875,-5.15625 m 1.4025,-1.66125 C 54.88625,33.115 54.3275,36.0925 50.58,38.56875 M 56.65375,26.965 c 0.21625,1.86375 -0.41125,3.29 -2.27125,4.66125 m 4.02375,-6.0525 c 0.44375,3.42375 -0.84875,6.855 -4.16,8.12125 m -0.845,2.115 c 2.555,-1.1525 5.96125,-1.72375 8.355,-0.73125 m -9.33125,4.225 c 0,0 2.20625,0.9975 5.235,0.5 M 55.425,37.815 c -0.09875,0.92375 0.0025,1.55875 0.255,2.125 M 34.69625,34.69125 c -5.0325,2.16 -7.35875,10.4075 0.215,11.28875 M 37.17375,35.6 C 28.3775,38.38625 32.005,46.29375 36.8375,43.72 m 3.955,-6.70375 c -8.42125,0.6625 -7.82625,5.51375 -5.81125,5.51375 2.015,0 1.9025,-2.9775 -0.715,-2.9775 m 1.7725,-1.39125 c 1.91375,0.79375 2.28625,2.4725 2.08125,3.9075 m 0.11125,-4.67125 c 0.7925,0.62 1.4825,1.75125 1.555,2.36125 m -6.6975,-5.9375 c -6.92875,4.90625 -3.6725,8.16125 -5.71625,10.0225 1.6625,0 1.89125,-0.26125 2.83,-1.2 m 1.63625,-7.86625 c -1.12875,-0.88 -2.625,-1.99625 -2.85625,-3.49625 -0.83875,2.31375 0.43375,4.2375 1.09375,5.2325 m -1.305,7.19375 c 1.2725,2.625 2.95875,3.1725 4.50625,3.97625 m -4.09,-3.2125 c 0,0.8925 0.22875,2.6275 -0.01125,3.39 1.52125,0.01875 2.0025,-0.72 2.35375,-1.08375 m -5.3825,-5.36 c 0.6475,-0.48375 1.90375,-1.34625 2.22875,-1.31375 m -2.3225,0.135 c 0.23,-0.525 1.86875,-2.60625 3.44125,-2.9475 m -3.23125,-1.085 1.3475,2.155 M 28.61625,37.6425 27.8575,36.02 29.335,35.27375 M 26.4875,35.0425 c 0.79875,-0.58375 1.83375,-1.0275 2.3575,-1.07375 m 23.41375,5.5075 c 0,0 1.9225,-2.3075 6.58,-2.02 m -0.78875,0.42 c 0.27125,-0.09125 0.78875,-0.23875 0.78875,-0.42 l -1.4025,-0.0075 m 0.2425,12.17625 c -0.09625,0.09625 -0.33625,0.815 -0.2525,0.97125" id="path11764" style="fill:none;stroke:#231f20;stroke-width:0.52625;stroke-linecap:round;stroke-linejoin:round;stroke-miterlimit:4;stroke-opacity:1;stroke-dasharray:none"/>
</svg>
<!-- version: 20110311, original size: 194.88126 77.952499, border: 3% -->